250.007 350.007 5
250.007 350.007 10
250.007 350.007 15
250.007 350.007 20
250.007 350.007 25
250.007 350.007 30
250.007 350.007 35
250.007 350.007 40
250.007 350.007 45
250.007 350.007 50
250.007 350.007 55
250.007 350.007 60
250.007 350.007 65
250.007 350.007 70
250.007 350.007 75
250.007 350.007 80
250.007 350.007 85
250.007 350.007 90
250.007 350.007 95
250.007 345.007 5
250.007 345.007 10
250.007 345.007 15
250.007 345.007 20
250.007 345.007 25
250.007 345.007 30
250.007 345.007 35
250.007 345.007 40
250.007 345.007 45
250.007 345.007 50
250.007 345.007 55
250.007 345.007 60
250.007 345.007 65
250.007 345.007 70
250.007 345.007 75
250.007 345.007 80
250.007 345.007 85
250.007 345.007 90
250.007 345.007 95
250.007 340.007 5
250.007 340.007 10
250.007 340.007 15
250.007 340.007 20
250.007 340.007 25
250.007 340.007 30
250.007 340.007 35
250.007 340.007 40
250.007 340.007 45
250.007 340.007 50
250.007 340.007 55
250.007 340.007 60
250.007 340.007 65
250.007 340.007 70
250.007 340.007 75
250.007 340.007 80
250.007 340.007 85
250.007 340.007 90
250.007 340.007 95
250.008 335.007 5
250.008 335.007 10
250.008 335.007 15
250.008 335.007 20
250.008 335.007 25
250.008 335.007 30
250.008 335.007 35
250.008 335.007 40
250.008 335.007 45
250.008 335.007 50
250.008 335.007 55
250.008 335.007 60
250.008 335.007 65
250.008 335.007 70
250.008 335.007 75
250.008 335.007 80
250.008 335.007 85
250.008 335.007 90
250.008 335.007 95
250.008 330.007 5
250.008 330.007 10
250.008 330.007 15
250.008 330.007 20
250.008 330.007 25
250.008 330.007 30
250.008 330.007 35
250.008 330.007 40
250.008 330.007 45
250.008 330.007 50
250.008 330.007 55
250.008 330.007 60
250.008 330.007 65
250.008 330.007 70
250.008 330.007 75
250.008 330.007 80
250.008 330.007 85
250.008 330.007 90
250.008 330.007 95
250.008 325.007 5
250.008 325.007 10
250.008 325.007 15
250.008 325.007 20
250.008 325.007 25
250.008 325.007 30
250.008 325.007 35
250.008 325.007 40
250.008 325.007 45
250.008 325.007 50
250.008 325.007 55
250.008 325.007 60
250.008 325.007 65
250.008 325.007 70
250.008 325.007 75
250.008 325.007 80
250.008 325.007 85
250.008 325.007 90
250.008 325.007 95
250.008 320.007 5
250.008 320.007 10
250.008 320.007 15
250.008 320.007 20
250.008 320.007 25
250.008 320.007 30
250.008 320.007 35
250.008 320.007 40
250.008 320.007 45
250.008 320.007 50
250.008 320.007 55
250.008 320.007 60
250.008 320.007 65
250.008 320.007 70
250.008 320.007 75
250.008 320.007 80
250.008 320.007 85
250.008 320.007 90
250.008 320.007 95
250.009 315.007 5
250.009 315.007 10
250.009 315.007 15
250.009 315.007 20
250.009 315.007 25
250.009 315.007 30
250.009 315.007 35
250.009 315.007 40
250.009 315.007 45
250.009 315.007 50
250.009 315.007 55
250.009 315.007 60
250.009 315.007 65
250.009 315.007 70
250.009 315.007 75
250.009 315.007 80
250.009 315.007 85
250.009 315.007 90
250.009 315.007 95
250.009 310.007 5
250.009 310.007 10
250.009 310.007 15
250.009 310.007 20
250.009 310.007 25
250.009 310.007 30
250.009 310.007 35
250.009 310.007 40
250.009 310.007 45
250.009 310.007 50
250.009 310.007 55
250.009 310.007 60
250.009 310.007 65
250.009 310.007 70
250.009 310.007 75
250.009 310.007 80
250.009 310.007 85
250.009 310.007 90
250.009 310.007 95
250.009 305.007 5
250.009 305.007 10
250.009 305.007 15
250.009 305.007 20
250.009 305.007 25
250.009 305.007 30
250.009 305.007 35
250.009 305.007 40
250.009 305.007 45
250.009 305.007 50
250.009 305.007 55
250.009 305.007 60
250.009 305.007 65
250.009 305.007 70
250.009 305.007 75
250.009 305.007 80
250.009 305.007 85
250.009 305.007 90
250.009 305.007 95
250.009 300.007 5
250.009 300.007 10
250.009 300.007 15
250.009 300.007 20
250.009 300.007 25
250.009 300.007 30
250.009 300.007 35
250.009 300.007 40
250.009 300.007 45
250.009 300.007 50
250.009 300.007 55
250.009 300.007 60
250.009 300.007 65
250.009 300.007 70
250.009 300.007 75
250.009 300.007 80
250.009 300.007 85
250.009 300.007 90
250.009 300.007 95
250.009 295.007 5
250.009 295.007 10
250.009 295.007 15
250.009 295.007 20
250.009 295.007 25
250.009 295.007 30
250.009 295.007 35
250.009 295.007 40
250.009 295.007 45
250.009 295.007 50
250.009 295.007 55
250.009 295.007 60
250.009 295.007 65
250.009 295.007 70
250.009 295.007 75
250.009 295.007 80
250.009 295.007 85
250.009 295.007 90
250.009 295.007 95
250.01 290.007 5
250.01 290.007 10
250.01 290.007 15
250.01 290.007 20
250.01 290.007 25
250.01 290.007 30
250.01 290.007 35
250.01 290.007 40
250.01 290.007 45
250.01 290.007 50
250.01 290.007 55
250.01 290.007 60
250.01 290.007 65
250.01 290.007 70
250.01 290.007 75
250.01 290.007 80
250.01 290.007 85
250.01 290.007 90
250.01 290.007 95
250.01 285.007 5
250.01 285.007 10
250.01 285.007 15
250.01 285.007 20
250.01 285.007 25
250.01 285.007 30
250.01 285.007 35
250.01 285.007 40
250.01 285.007 45
250.01 285.007 50
250.01 285.007 55
250.01 285.007 60
250.01 285.007 65
250.01 285.007 70
250.01 285.007 75
250.01 285.007 80
250.01 285.007 85
250.01 285.007 90
250.01 285.007 95
250.01 280.007 5
250.01 280.007 10
250.01 280.007 15
250.01 280.007 20
250.01 280.007 25
250.01 280.007 30
250.01 280.007 35
250.01 280.007 40
250.01 280.007 45
250.01 280.007 50
250.01 280.007 55
250.01 280.007 60
250.01 280.007 65
250.01 280.007 70
250.01 280.007 75
250.01 280.007 80
250.01 280.007 85
250.01 280.007 90
250.01 280.007 95
250.01 275.007 5
250.01 275.007 10
250.01 275.007 15
250.01 275.007 20
250.01 275.007 25
250.01 275.007 30
250.01 275.007 35
250.01 275.007 40
250.01 275.007 45
250.01 275.007 50
250.01 275.007 55
250.01 275.007 60
250.01 275.007 65
250.01 275.007 70
250.01 275.007 75
250.01 275.007 80
250.01 275.007 85
250.01 275.007 90
250.01 275.007 95
250.011 270.007 5
250.011 270.007 10
250.011 270.007 15
250.011 270.007 20
250.011 270.007 25
250.011 270.007 30
250.011 270.007 35
250.011 270.007 40
250.011 270.007 45
250.011 270.007 50
250.011 270.007 55
250.011 270.007 60
250.011 270.007 65
250.011 270.007 70
250.011 270.007 75
250.011 270.007 80
250.011 270.007 85
250.011 270.007 90
250.011 270.007 95
250.011 265.007 5
250.011 265.007 10
250.011 265.007 15
250.011 265.007 20
250.011 265.007 25
250.011 265.007 30
250.011 265.007 35
250.011 265.007 40
250.011 265.007 45
250.011 265.007 50
250.011 265.007 55
250.011 265.007 60
250.011 265.007 65
250.011 265.007 70
250.011 265.007 75
250.011 265.007 80
250.011 265.007 85
250.011 265.007 90
250.011 265.007 95
250.011 260.007 5
250.011 260.007 10
250.011 260.007 15
250.011 260.007 20
250.011 260.007 25
250.011 260.007 30
250.011 260.007 35
250.011 260.007 40
250.011 260.007 45
250.011 260.007 50
250.011 260.007 55
250.011 260.007 60
250.011 260.007 65
250.011 260.007 70
250.011 260.007 75
250.011 260.007 80
250.011 260.007 85
250.011 260.007 90
250.011 260.007 95
250.011 255.007 5
250.011 255.007 10
250.011 255.007 15
250.011 255.007 20
250.011 255.007 25
250.011 255.007 30
250.011 255.007 35
250.011 255.007 40
250.011 255.007 45
250.011 255.007 50
250.011 255.007 55
250.011 255.007 60
250.011 255.007 65
250.011 255.007 70
250.011 255.007 75
250.011 255.007 80
250.011 255.007 85
250.011 255.007 90
250.011 255.007 95
250.012 250.007 5
250.012 250.007 10
250.012 250.007 15
250.012 250.007 20
250.012 250.007 25
250.012 250.007 30
250.012 250.007 35
250.012 250.007 40
250.012 250.007 45
250.012 250.007 50
250.012 250.007 55
250.012 250.007 60
250.012 250.007 65
250.012 250.007 70
250.012 250.007 75
250.012 250.007 80
250.012 250.007 85
250.012 250.007 90
250.012 250.007 95
250.007 350.007 5
250.007 350.007 10
250.007 350.007 15
250.007 350.007 20
250.007 350.007 25
250.007 350.007 30
250.007 350.007 35
250.007 350.007 40
250.007 350.007 45
250.007 350.007 50
250.007 350.007 55
250.007 350.007 60
250.007 350.007 65
250.007 350.007 70
250.007 350.007 75
250.007 350.007 80
250.007 350.007 85
250.007 350.007 90
250.007 350.007 95
255.007 350.007 5
255.007 350.007 10
255.007 350.007 15
255.007 350.007 20
255.007 350.007 25
255.007 350.007 30
255.007 350.007 35
255.007 350.007 40
255.007 350.007 45
255.007 350.007 50
255.007 350.007 55
255.007 350.007 60
255.007 350.007 65
255.007 350.007 70
255.007 350.007 75
255.007 350.007 80
255.007 350.007 85
255.007 350.007 90
255.007 350.007 95
260.007 350.007 5
260.007 350.007 10
260.007 350.007 15
260.007 350.007 20
260.007 350.007 25
260.007 350.007 30
260.007 350.007 35
260.007 350.007 40
260.007 350.007 45
260.007 350.007 50
260.007 350.007 55
260.007 350.007 60
260.007 350.007 65
260.007 350.007 70
260.007 350.007 75
260.007 350.007 80
260.007 350.007 85
260.007 350.007 90
260.007 350.007 95
265.007 350.008 5
265.007 350.008 10
265.007 350.008 15
265.007 350.008 20
265.007 350.008 25
265.007 350.008 30
265.007 350.008 35
265.007 350.008 40
265.007 350.008 45
265.007 350.008 50
265.007 350.008 55
265.007 350.008 60
265.007 350.008 65
265.007 350.008 70
265.007 350.008 75
265.007 350.008 80
265.007 350.008 85
265.007 350.008 90
265.007 350.008 95
270.007 350.008 5
270.007 350.008 10
270.007 350.008 15
270.007 350.008 20
270.007 350.008 25
270.007 350.008 30
270.007 350.008 35
270.007 350.008 40
270.007 350.008 45
270.007 350.008 50
270.007 350.008 55
270.007 350.008 60
270.007 350.008 65
270.007 350.008 70
270.007 350.008 75
270.007 350.008 80
270.007 350.008 85
270.007 350.008 90
270.007 350.008 95
275.007 350.008 5
275.007 350.008 10
275.007 350.008 15
275.007 350.008 20
275.007 350.008 25
275.007 350.008 30
275.007 350.008 35
275.007 350.008 40
275.007 350.008 45
275.007 350.008 50
275.007 350.008 55
275.007 350.008 60
275.007 350.008 65
275.007 350.008 70
275.007 350.008 75
275.007 350.008 80
275.007 350.008 85
275.007 350.008 90
275.007 350.008 95
280.007 350.008 5
280.007 350.008 10
280.007 350.008 15
280.007 350.008 20
280.007 350.008 25
280.007 350.008 30
280.007 350.008 35
280.007 350.008 40
280.007 350.008 45
280.007 350.008 50
280.007 350.008 55
280.007 350.008 60
280.007 350.008 65
280.007 350.008 70
280.007 350.008 75
280.007 350.008 80
280.007 350.008 85
280.007 350.008 90
280.007 350.008 95
285.007 350.009 5
285.007 350.009 10
285.007 350.009 15
285.007 350.009 20
285.007 350.009 25
285.007 350.009 30
285.007 350.009 35
285.007 350.009 40
285.007 350.009 45
285.007 350.009 50
285.007 350.009 55
285.007 350.009 60
285.007 350.009 65
285.007 350.009 70
285.007 350.009 75
285.007 350.009 80
285.007 350.009 85
285.007 350.009 90
285.007 350.009 95
290.007 350.009 5
290.007 350.009 10
290.007 350.009 15
290.007 350.009 20
290.007 350.009 25
290.007 350.009 30
290.007 350.009 35
290.007 350.009 40
290.007 350.009 45
290.007 350.009 50
290.007 350.009 55
290.007 350.009 60
290.007 350.009 65
290.007 350.009 70
290.007 350.009 75
290.007 350.009 80
290.007 350.009 85
290.007 350.009 90
290.007 350.009 95
295.007 350.009 5
295.007 350.009 10
295.007 350.009 15
295.007 350.009 20
295.007 350.009 25
295.007 350.009 30
295.007 350.009 35
295.007 350.009 40
295.007 350.009 45
295.007 350.009 50
295.007 350.009 55
295.007 350.009 60
295.007 350.009 65
295.007 350.009 70
295.007 350.009 75
295.007 350.009 80
295.007 350.009 85
295.007 350.009 90
295.007 350.009 95
300.007 350.009 5
300.007 350.009 10
300.007 350.009 15
300.007 350.009 20
300.007 350.009 25
300.007 350.009 30
300.007 350.009 35
300.007 350.009 40
300.007 350.009 45
300.007 350.009 50
300.007 350.009 55
300.007 350.009 60
300.007 350.009 65
300.007 350.009 70
300.007 350.009 75
300.007 350.009 80
300.007 350.009 85
300.007 350.009 90
300.007 350.009 95
305.007 350.009 5
305.007 350.009 10
305.007 350.009 15
305.007 350.009 20
305.007 350.009 25
305.007 350.009 30
305.007 350.009 35
305.007 350.009 40
305.007 350.009 45
305.007 350.009 50
305.007 350.009 55
305.007 350.009 60
305.007 350.009 65
305.007 350.009 70
305.007 350.009 75
305.007 350.009 80
305.007 350.009 85
305.007 350.009 90
305.007 350.009 95
310.007 350.01 5
310.007 350.01 10
310.007 350.01 15
310.007 350.01 20
310.007 350.01 25
310.007 350.01 30
310.007 350.01 35
310.007 350.01 40
310.007 350.01 45
310.007 350.01 50
310.007 350.01 55
310.007 350.01 60
310.007 350.01 65
310.007 350.01 70
310.007 350.01 75
310.007 350.01 80
310.007 350.01 85
310.007 350.01 90
310.007 350.01 95
315.007 350.01 5
315.007 350.01 10
315.007 350.01 15
315.007 350.01 20
315.007 350.01 25
315.007 350.01 30
315.007 350.01 35
315.007 350.01 40
315.007 350.01 45
315.007 350.01 50
315.007 350.01 55
315.007 350.01 60
315.007 350.01 65
315.007 350.01 70
315.007 350.01 75
315.007 350.01 80
315.007 350.01 85
315.007 350.01 90
315.007 350.01 95
320.007 350.01 5
320.007 350.01 10
320.007 350.01 15
320.007 350.01 20
320.007 350.01 25
320.007 350.01 30
320.007 350.01 35
320.007 350.01 40
320.007 350.01 45
320.007 350.01 50
320.007 350.01 55
320.007 350.01 60
320.007 350.01 65
320.007 350.01 70
320.007 350.01 75
320.007 350.01 80
320.007 350.01 85
320.007 350.01 90
320.007 350.01 95
325.007 350.01 5
325.007 350.01 10
325.007 350.01 15
325.007 350.01 20
325.007 350.01 25
325.007 350.01 30
325.007 350.01 35
325.007 350.01 40
325.007 350.01 45
325.007 350.01 50
325.007 350.01 55
325.007 350.01 60
325.007 350.01 65
325.007 350.01 70
325.007 350.01 75
325.007 350.01 80
325.007 350.01 85
325.007 350.01 90
325.007 350.01 95
330.007 350.011 5
330.007 350.011 10
330.007 350.011 15
330.007 350.011 20
330.007 350.011 25
330.007 350.011 30
330.007 350.011 35
330.007 350.011 40
330.007 350.011 45
330.007 350.011 50
330.007 350.011 55
330.007 350.011 60
330.007 350.011 65
330.007 350.011 70
330.007 350.011 75
330.007 350.011 80
330.007 350.011 85
330.007 350.011 90
330.007 350.011 95
335.007 350.011 5
335.007 350.011 10
335.007 350.011 15
335.007 350.011 20
335.007 350.011 25
335.007 350.011 30
335.007 350.011 35
335.007 350.011 40
335.007 350.011 45
335.007 350.011 50
335.007 350.011 55
335.007 350.011 60
335.007 350.011 65
335.007 350.011 70
335.007 350.011 75
335.007 350.011 80
335.007 350.011 85
335.007 350.011 90
335.007 350.011 95
340.007 350.011 5
340.007 350.011 10
340.007 350.011 15
340.007 350.011 20
340.007 350.011 25
340.007 350.011 30
340.007 350.011 35
340.007 350.011 40
340.007 350.011 45
340.007 350.011 50
340.007 350.011 55
340.007 350.011 60
340.007 350.011 65
340.007 350.011 70
340.007 350.011 75
340.007 350.011 80
340.007 350.011 85
340.007 350.011 90
340.007 350.011 95
345.007 350.011 5
345.007 350.011 10
345.007 350.011 15
345.007 350.011 20
345.007 350.011 25
345.007 350.011 30
345.007 350.011 35
345.007 350.011 40
345.007 350.011 45
345.007 350.011 50
345.007 350.011 55
345.007 350.011 60
345.007 350.011 65
345.007 350.011 70
345.007 350.011 75
345.007 350.011 80
345.007 350.011 85
345.007 350.011 90
345.007 350.011 95
350.007 350.012 5
350.007 350.012 10
350.007 350.012 15
350.007 350.012 20
350.007 350.012 25
350.007 350.012 30
350.007 350.012 35
350.007 350.012 40
350.007 350.012 45
350.007 350.012 50
350.007 350.012 55
350.007 350.012 60
350.007 350.012 65
350.007 350.012 70
350.007 350.012 75
350.007 350.012 80
350.007 350.012 85
350.007 350.012 90
350.007 350.012 95
350.009 250.009 5
350.009 250.009 10
350.009 250.009 15
350.009 250.009 20
350.009 250.009 25
350.009 250.009 30
350.009 250.009 35
350.009 250.009 40
350.009 250.009 45
350.009 250.009 50
350.009 250.009 55
350.009 250.009 60
350.009 250.009 65
350.009 250.009 70
350.009 250.009 75
350.009 250.009 80
350.009 250.009 85
350.009 250.009 90
350.009 250.009 95
350.009 255.009 5
350.009 255.009 10
350.009 255.009 15
350.009 255.009 20
350.009 255.009 25
350.009 255.009 30
350.009 255.009 35
350.009 255.009 40
350.009 255.009 45
350.009 255.009 50
350.009 255.009 55
350.009 255.009 60
350.009 255.009 65
350.009 255.009 70
350.009 255.009 75
350.009 255.009 80
350.009 255.009 85
350.009 255.009 90
350.009 255.009 95
350.01 260.009 5
350.01 260.009 10
350.01 260.009 15
350.01 260.009 20
350.01 260.009 25
350.01 260.009 30
350.01 260.009 35
350.01 260.009 40
350.01 260.009 45
350.01 260.009 50
350.01 260.009 55
350.01 260.009 60
350.01 260.009 65
350.01 260.009 70
350.01 260.009 75
350.01 260.009 80
350.01 260.009 85
350.01 260.009 90
350.01 260.009 95
350.01 265.009 5
350.01 265.009 10
350.01 265.009 15
350.01 265.009 20
350.01 265.009 25
350.01 265.009 30
350.01 265.009 35
350.01 265.009 40
350.01 265.009 45
350.01 265.009 50
350.01 265.009 55
350.01 265.009 60
350.01 265.009 65
350.01 265.009 70
350.01 265.009 75
350.01 265.009 80
350.01 265.009 85
350.01 265.009 90
350.01 265.009 95
350.01 270.009 5
350.01 270.009 10
350.01 270.009 15
350.01 270.009 20
350.01 270.009 25
350.01 270.009 30
350.01 270.009 35
350.01 270.009 40
350.01 270.009 45
350.01 270.009 50
350.01 270.009 55
350.01 270.009 60
350.01 270.009 65
350.01 270.009 70
350.01 270.009 75
350.01 270.009 80
350.01 270.009 85
350.01 270.009 90
350.01 270.009 95
350.01 275.009 5
350.01 275.009 10
350.01 275.009 15
350.01 275.009 20
350.01 275.009 25
350.01 275.009 30
350.01 275.009 35
350.01 275.009 40
350.01 275.009 45
350.01 275.009 50
350.01 275.009 55
350.01 275.009 60
350.01 275.009 65
350.01 275.009 70
350.01 275.009 75
350.01 275.009 80
350.01 275.009 85
350.01 275.009 90
350.01 275.009 95
350.011 280.009 5
350.011 280.009 10
350.011 280.009 15
350.011 280.009 20
350.011 280.009 25
350.011 280.009 30
350.011 280.009 35
350.011 280.009 40
350.011 280.009 45
350.011 280.009 50
350.011 280.009 55
350.011 280.009 60
350.011 280.009 65
350.011 280.009 70
350.011 280.009 75
350.011 280.009 80
350.011 280.009 85
350.011 280.009 90
350.011 280.009 95
350.011 285.009 5
350.011 285.009 10
350.011 285.009 15
350.011 285.009 20
350.011 285.009 25
350.011 285.009 30
350.011 285.009 35
350.011 285.009 40
350.011 285.009 45
350.011 285.009 50
350.011 285.009 55
350.011 285.009 60
350.011 285.009 65
350.011 285.009 70
350.011 285.009 75
350.011 285.009 80
350.011 285.009 85
350.011 285.009 90
350.011 285.009 95
350.011 290.009 5
350.011 290.009 10
350.011 290.009 15
350.011 290.009 20
350.011 290.009 25
350.011 290.009 30
350.011 290.009 35
350.011 290.009 40
350.011 290.009 45
350.011 290.009 50
350.011 290.009 55
350.011 290.009 60
350.011 290.009 65
350.011 290.009 70
350.011 290.009 75
350.011 290.009 80
350.011 290.009 85
350.011 290.009 90
350.011 290.009 95
350.011 295.009 5
350.011 295.009 10
350.011 295.009 15
350.011 295.009 20
350.011 295.009 25
350.011 295.009 30
350.011 295.009 35
350.011 295.009 40
350.011 295.009 45
350.011 295.009 50
350.011 295.009 55
350.011 295.009 60
350.011 295.009 65
350.011 295.009 70
350.011 295.009 75
350.011 295.009 80
350.011 295.009 85
350.011 295.009 90
350.011 295.009 95
350.012 300.009 5
350.012 300.009 10
350.012 300.009 15
350.012 300.009 20
350.012 300.009 25
350.012 300.009 30
350.012 300.009 35
350.012 300.009 40
350.012 300.009 45
350.012 300.009 50
350.012 300.009 55
350.012 300.009 60
350.012 300.009 65
350.012 300.009 70
350.012 300.009 75
350.012 300.009 80
350.012 300.009 85
350.012 300.009 90
350.012 300.009 95
350.012 305.009 5
350.012 305.009 10
350.012 305.009 15
350.012 305.009 20
350.012 305.009 25
350.012 305.009 30
350.012 305.009 35
350.012 305.009 40
350.012 305.009 45
350.012 305.009 50
350.012 305.009 55
350.012 305.009 60
350.012 305.009 65
350.012 305.009 70
350.012 305.009 75
350.012 305.009 80
350.012 305.009 85
350.012 305.009 90
350.012 305.009 95
350.012 310.009 5
350.012 310.009 10
350.012 310.009 15
350.012 310.009 20
350.012 310.009 25
350.012 310.009 30
350.012 310.009 35
350.012 310.009 40
350.012 310.009 45
350.012 310.009 50
350.012 310.009 55
350.012 310.009 60
350.012 310.009 65
350.012 310.009 70
350.012 310.009 75
350.012 310.009 80
350.012 310.009 85
350.012 310.009 90
350.012 310.009 95
350.012 315.009 5
350.012 315.009 10
350.012 315.009 15
350.012 315.009 20
350.012 315.009 25
350.012 315.009 30
350.012 315.009 35
350.012 315.009 40
350.012 315.009 45
350.012 315.009 50
350.012 315.009 55
350.012 315.009 60
350.012 315.009 65
350.012 315.009 70
350.012 315.009 75
350.012 315.009 80
350.012 315.009 85
350.012 315.009 90
350.012 315.009 95
350.013 320.009 5
350.013 320.009 10
350.013 320.009 15
350.013 320.009 20
350.013 320.009 25
350.013 320.009 30
350.013 320.009 35
350.013 320.009 40
350.013 320.009 45
350.013 320.009 50
350.013 320.009 55
350.013 320.009 60
350.013 320.009 65
350.013 320.009 70
350.013 320.009 75
350.013 320.009 80
350.013 320.009 85
350.013 320.009 90
350.013 320.009 95
350.013 325.009 5
350.013 325.009 10
350.013 325.009 15
350.013 325.009 20
350.013 325.009 25
350.013 325.009 30
350.013 325.009 35
350.013 325.009 40
350.013 325.009 45
350.013 325.009 50
350.013 325.009 55
350.013 325.009 60
350.013 325.009 65
350.013 325.009 70
350.013 325.009 75
350.013 325.009 80
350.013 325.009 85
350.013 325.009 90
350.013 325.009 95
350.013 330.009 5
350.013 330.009 10
350.013 330.009 15
350.013 330.009 20
350.013 330.009 25
350.013 330.009 30
350.013 330.009 35
350.013 330.009 40
350.013 330.009 45
350.013 330.009 50
350.013 330.009 55
350.013 330.009 60
350.013 330.009 65
350.013 330.009 70
350.013 330.009 75
350.013 330.009 80
350.013 330.009 85
350.013 330.009 90
350.013 330.009 95
350.013 335.009 5
350.013 335.009 10
350.013 335.009 15
350.013 335.009 20
350.013 335.009 25
350.013 335.009 30
350.013 335.009 35
350.013 335.009 40
350.013 335.009 45
350.013 335.009 50
350.013 335.009 55
350.013 335.009 60
350.013 335.009 65
350.013 335.009 70
350.013 335.009 75
350.013 335.009 80
350.013 335.009 85
350.013 335.009 90
350.013 335.009 95
350.013 340.009 5
350.013 340.009 10
350.013 340.009 15
350.013 340.009 20
350.013 340.009 25
350.013 340.009 30
350.013 340.009 35
350.013 340.009 40
350.013 340.009 45
350.013 340.009 50
350.013 340.009 55
350.013 340.009 60
350.013 340.009 65
350.013 340.009 70
350.013 340.009 75
350.013 340.009 80
350.013 340.009 85
350.013 340.009 90
350.013 340.009 95
350.014 345.009 5
350.014 345.009 10
350.014 345.009 15
350.014 345.009 20
350.014 345.009 25
350.014 345.009 30
350.014 345.009 35
350.014 345.009 40
350.014 345.009 45
350.014 345.009 50
350.014 345.009 55
350.014 345.009 60
350.014 345.009 65
350.014 345.009 70
350.014 345.009 75
350.014 345.009 80
350.014 345.009 85
350.014 345.009 90
350.014 345.009 95
350.014 350.009 5
350.014 350.009 10
350.014 350.009 15
350.014 350.009 20
350.014 350.009 25
350.014 350.009 30
350.014 350.009 35
350.014 350.009 40
350.014 350.009 45
350.014 350.009 50
350.014 350.009 55
350.014 350.009 60
350.014 350.009 65
350.014 350.009 70
350.014 350.009 75
350.014 350.009 80
350.014 350.009 85
350.014 350.009 90
350.014 350.009 95
350.009 250.009 5
350.009 250.009 10
350.009 250.009 15
350.009 250.009 20
350.009 250.009 25
350.009 250.009 30
350.009 250.009 35
350.009 250.009 40
350.009 250.009 45
350.009 250.009 50
350.009 250.009 55
350.009 250.009 60
350.009 250.009 65
350.009 250.009 70
350.009 250.009 75
350.009 250.009 80
350.009 250.009 85
350.009 250.009 90
350.009 250.009 95
345.009 250.009 5
345.009 250.009 10
345.009 250.009 15
345.009 250.009 20
345.009 250.009 25
345.009 250.009 30
345.009 250.009 35
345.009 250.009 40
345.009 250.009 45
345.009 250.009 50
345.009 250.009 55
345.009 250.009 60
345.009 250.009 65
345.009 250.009 70
345.009 250.009 75
345.009 250.009 80
345.009 250.009 85
345.009 250.009 90
345.009 250.009 95
340.009 250.01 5
340.009 250.01 10
340.009 250.01 15
340.009 250.01 20
340.009 250.01 25
340.009 250.01 30
340.009 250.01 35
340.009 250.01 40
340.009 250.01 45
340.009 250.01 50
340.009 250.01 55
340.009 250.01 60
340.009 250.01 65
340.009 250.01 70
340.009 250.01 75
340.009 250.01 80
340.009 250.01 85
340.009 250.01 90
340.009 250.01 95
335.009 250.01 5
335.009 250.01 10
335.009 250.01 15
335.009 250.01 20
335.009 250.01 25
335.009 250.01 30
335.009 250.01 35
335.009 250.01 40
335.009 250.01 45
335.009 250.01 50
335.009 250.01 55
335.009 250.01 60
335.009 250.01 65
335.009 250.01 70
335.009 250.01 75
335.009 250.01 80
335.009 250.01 85
335.009 250.01 90
335.009 250.01 95
330.009 250.01 5
330.009 250.01 10
330.009 250.01 15
330.009 250.01 20
330.009 250.01 25
330.009 250.01 30
330.009 250.01 35
330.009 250.01 40
330.009 250.01 45
330.009 250.01 50
330.009 250.01 55
330.009 250.01 60
330.009 250.01 65
330.009 250.01 70
330.009 250.01 75
330.009 250.01 80
330.009 250.01 85
330.009 250.01 90
330.009 250.01 95
325.009 250.01 5
325.009 250.01 10
325.009 250.01 15
325.009 250.01 20
325.009 250.01 25
325.009 250.01 30
325.009 250.01 35
325.009 250.01 40
325.009 250.01 45
325.009 250.01 50
325.009 250.01 55
325.009 250.01 60
325.009 250.01 65
325.009 250.01 70
325.009 250.01 75
325.009 250.01 80
325.009 250.01 85
325.009 250.01 90
325.009 250.01 95
320.009 250.011 5
320.009 250.011 10
320.009 250.011 15
320.009 250.011 20
320.009 250.011 25
320.009 250.011 30
320.009 250.011 35
320.009 250.011 40
320.009 250.011 45
320.009 250.011 50
320.009 250.011 55
320.009 250.011 60
320.009 250.011 65
320.009 250.011 70
320.009 250.011 75
320.009 250.011 80
320.009 250.011 85
320.009 250.011 90
320.009 250.011 95
315.009 250.011 5
315.009 250.011 10
315.009 250.011 15
315.009 250.011 20
315.009 250.011 25
315.009 250.011 30
315.009 250.011 35
315.009 250.011 40
315.009 250.011 45
315.009 250.011 50
315.009 250.011 55
315.009 250.011 60
315.009 250.011 65
315.009 250.011 70
315.009 250.011 75
315.009 250.011 80
315.009 250.011 85
315.009 250.011 90
315.009 250.011 95
310.009 250.011 5
310.009 250.011 10
310.009 250.011 15
310.009 250.011 20
310.009 250.011 25
310.009 250.011 30
310.009 250.011 35
310.009 250.011 40
310.009 250.011 45
310.009 250.011 50
310.009 250.011 55
310.009 250.011 60
310.009 250.011 65
310.009 250.011 70
310.009 250.011 75
310.009 250.011 80
310.009 250.011 85
310.009 250.011 90
310.009 250.011 95
305.009 250.011 5
305.009 250.011 10
305.009 250.011 15
305.009 250.011 20
305.009 250.011 25
305.009 250.011 30
305.009 250.011 35
305.009 250.011 40
305.009 250.011 45
305.009 250.011 50
305.009 250.011 55
305.009 250.011 60
305.009 250.011 65
305.009 250.011 70
305.009 250.011 75
305.009 250.011 80
305.009 250.011 85
305.009 250.011 90
305.009 250.011 95
300.009 250.012 5
300.009 250.012 10
300.009 250.012 15
300.009 250.012 20
300.009 250.012 25
300.009 250.012 30
300.009 250.012 35
300.009 250.012 40
300.009 250.012 45
300.009 250.012 50
300.009 250.012 55
300.009 250.012 60
300.009 250.012 65
300.009 250.012 70
300.009 250.012 75
300.009 250.012 80
300.009 250.012 85
300.009 250.012 90
300.009 250.012 95
295.009 250.012 5
295.009 250.012 10
295.009 250.012 15
295.009 250.012 20
295.009 250.012 25
295.009 250.012 30
295.009 250.012 35
295.009 250.012 40
295.009 250.012 45
295.009 250.012 50
295.009 250.012 55
295.009 250.012 60
295.009 250.012 65
295.009 250.012 70
295.009 250.012 75
295.009 250.012 80
295.009 250.012 85
295.009 250.012 90
295.009 250.012 95
290.009 250.012 5
290.009 250.012 10
290.009 250.012 15
290.009 250.012 20
290.009 250.012 25
290.009 250.012 30
290.009 250.012 35
290.009 250.012 40
290.009 250.012 45
290.009 250.012 50
290.009 250.012 55
290.009 250.012 60
290.009 250.012 65
290.009 250.012 70
290.009 250.012 75
290.009 250.012 80
290.009 250.012 85
290.009 250.012 90
290.009 250.012 95
285.009 250.012 5
285.009 250.012 10
285.009 250.012 15
285.009 250.012 20
285.009 250.012 25
285.009 250.012 30
285.009 250.012 35
285.009 250.012 40
285.009 250.012 45
285.009 250.012 50
285.009 250.012 55
285.009 250.012 60
285.009 250.012 65
285.009 250.012 70
285.009 250.012 75
285.009 250.012 80
285.009 250.012 85
285.009 250.012 90
285.009 250.012 95
280.009 250.013 5
280.009 250.013 10
280.009 250.013 15
280.009 250.013 20
280.009 250.013 25
280.009 250.013 30
280.009 250.013 35
280.009 250.013 40
280.009 250.013 45
280.009 250.013 50
280.009 250.013 55
280.009 250.013 60
280.009 250.013 65
280.009 250.013 70
280.009 250.013 75
280.009 250.013 80
280.009 250.013 85
280.009 250.013 90
280.009 250.013 95
275.009 250.013 5
275.009 250.013 10
275.009 250.013 15
275.009 250.013 20
275.009 250.013 25
275.009 250.013 30
275.009 250.013 35
275.009 250.013 40
275.009 250.013 45
275.009 250.013 50
275.009 250.013 55
275.009 250.013 60
275.009 250.013 65
275.009 250.013 70
275.009 250.013 75
275.009 250.013 80
275.009 250.013 85
275.009 250.013 90
275.009 250.013 95
270.009 250.013 5
270.009 250.013 10
270.009 250.013 15
270.009 250.013 20
270.009 250.013 25
270.009 250.013 30
270.009 250.013 35
270.009 250.013 40
270.009 250.013 45
270.009 250.013 50
270.009 250.013 55
270.009 250.013 60
270.009 250.013 65
270.009 250.013 70
270.009 250.013 75
270.009 250.013 80
270.009 250.013 85
270.009 250.013 90
270.009 250.013 95
265.009 250.013 5
265.009 250.013 10
265.009 250.013 15
265.009 250.013 20
265.009 250.013 25
265.009 250.013 30
265.009 250.013 35
265.009 250.013 40
265.009 250.013 45
265.009 250.013 50
265.009 250.013 55
265.009 250.013 60
265.009 250.013 65
265.009 250.013 70
265.009 250.013 75
265.009 250.013 80
265.009 250.013 85
265.009 250.013 90
265.009 250.013 95
260.009 250.013 5
260.009 250.013 10
260.009 250.013 15
260.009 250.013 20
260.009 250.013 25
260.009 250.013 30
260.009 250.013 35
260.009 250.013 40
260.009 250.013 45
260.009 250.013 50
260.009 250.013 55
260.009 250.013 60
260.009 250.013 65
260.009 250.013 70
260.009 250.013 75
260.009 250.013 80
260.009 250.013 85
260.009 250.013 90
260.009 250.013 95
255.009 250.014 5
255.009 250.014 10
255.009 250.014 15
255.009 250.014 20
255.009 250.014 25
255.009 250.014 30
255.009 250.014 35
255.009 250.014 40
255.009 250.014 45
255.009 250.014 50
255.009 250.014 55
255.009 250.014 60
255.009 250.014 65
255.009 250.014 70
255.009 250.014 75
255.009 250.014 80
255.009 250.014 85
255.009 250.014 90
255.009 250.014 95
250.009 250.014 5
250.009 250.014 10
250.009 250.014 15
250.009 250.014 20
250.009 250.014 25
250.009 250.014 30
250.009 250.014 35
250.009 250.014 40
250.009 250.014 45
250.009 250.014 50
250.009 250.014 55
250.009 250.014 60
250.009 250.014 65
250.009 250.014 70
250.009 250.014 75
250.009 250.014 80
250.009 250.014 85
250.009 250.014 90
250.009 250.014 95
